{
	"info": {
		"_postman_id": "f3107d4c-11f1-4b75-82e3-d50f4ddc182a",
		"name": "MyRestMock",
		"schema": "https://schema.getpostman.com/json/collection/v2.1.0/collection.json"
	},
	"item": [
		{
			"name": "Manage Mocks",
			"item": [
				{
					"name": "Create Mock",
					"request": {
						"method": "POST",
						"header": [],
						"body": {
							"mode": "raw",
							"raw": "{\n    \"name\": \"mock-service-01\",\n    \"responseDefinition\": {\n        \"responses\": [\n            {\n                \"name\": \"response-01\",\n                \"json\": \"{ 'key1': 'value10', 'key2': 'value20' }\",\n                \"default\": true,\n                \"status\": 200\n            },\n            {\n                \"name\": \"response-02\",\n                \"json\": \"{ 'key1': 'value11', 'key2': 'value21' }\",                \n                \"status\": 200\n            }\n\n        ],\n        \"rules\": [\n            {\n                \"fieldName\": \"key1\",\n                \"ruleConditionType\": \"stringEquals\",\n                \"value\": \"value11\",\n                \"responseName\": \"response-02\"\n            }\n        ]\n    }\n}",
							"options": {
								"raw": {
									"language": "json"
								}
							}
						},
						"url": {
							"raw": "http://localhost:3000/mocks",
							"protocol": "http",
							"host": [
								"localhost"
							],
							"port": "3000",
							"path": [
								"mocks"
							]
						}
					},
					"response": []
				},
				{
					"name": "Get Mocks",
					"request": {
						"method": "GET",
						"header": [],
						"url": {
							"raw": "http://localhost:3000/mocks",
							"protocol": "http",
							"host": [
								"localhost"
							],
							"port": "3000",
							"path": [
								"mocks"
							]
						}
					},
					"response": []
				}
			]
		},
		{
			"name": "Using Mocks",
			"item": [
				{
					"name": "mock-service-01",
					"request": {
						"method": "POST",
						"header": [],
						"body": {
							"mode": "raw",
							"raw": "{\n    \"key1\": \"value11\",\n    \"key2\": \"value20\"\n}",
							"options": {
								"raw": {
									"language": "json"
								}
							}
						},
						"url": {
							"raw": "http://localhost:3000/mock-services/mock-service-01",
							"protocol": "http",
							"host": [
								"localhost"
							],
							"port": "3000",
							"path": [
								"mock-services",
								"mock-service-01"
							]
						}
					},
					"response": []
				}
			]
		}
	]
}